ID; 12;
IDENTIDAD; 7;
IDENTIFICADOR; 16;
IDENTIFICARÁ; 21;
IDÉNTICO; 16;
IGUAL; 16;
IMPEDIRÁ; 5;
IMPORTANTE; 1;
INCLUSIVO; 16;
INCLUYENDO; 1;
INFERIOR; 7;
INFOGOBIERNO; 1;
INFORMACIÓN; 7,6,4,22,18,10,5,1;
INFORME; 6,2;
INFORMÁTICA; 1;
INFORMÁTICAS; 1;
INGRESA; 10,19;
INGRESAR; 16,3,6,5;
INGRESARÁ; 10;
INGRESO; 3,9,7,6,5,4,2,1;
INMEDIATAS; 1;
INSTITUCIONES; 1;
INSTITUCIÓN; 1;
INTEGRACIÓN; 1;
INTRO; 3;
INTRODUCCIÓN; 1;
INTRODUCE; 4;
INTRODUCEN; 5;
INTRODUCIDOS; 3;
INTRODUCIR; 16,3,19,7;
IR; 16,15,10,9,21;
IRA; 10;
ITEMS; 10,4;
IZQUIERDA; 7,21,16;
IZQUIERDO; 16,8;
