OBLIGATORIO; 5;
OBLIGATORIOS; 5;
OBREROS; 1;
OBSERVAR; 5;
OBTENER; 9;
OBTENIDOS; 15;
OFRECE; 1;
OFRECIERA; 1;
OLVIDE; 14,12;
OPCIONES; 19,3;
OPCIÓN; 6,18,16,15,10,9,7;
OPENSOURCE; 1;
OPERACIONES; 15;
OPERADORES; 16;
OR; 16;
ORGANIZACIONES; 1;
ORIGINADO; 1;
OTRA; 16;
OTRAS; 9;
OTROS; 7,4,21,6,5,1;
