UBICA; 21;
UBICADA; 16;
UN; 1,21,5,18,15,20,16,14,3;
UNA; 1,16,19,14,10,4,17,12,11,7,5;
UNAS; 16;
UNO; 16,15,1;
UNOS; 16,9;
URL; 3;
USADO; 18;
USO; 16,15;
USUARIO; 3,4;
USUARIO-LOGIN; 3;
USUARIOS; 1,9,4;
UTILIZA; 7;
UTILIZADAS; 9;
UTILIZADO; 18;
UTILIZADOS; 15,9;
UTILIZANDO; 10;
UTILIZAR; 16,10;
UTILIZO; 1;
