EDITAR; 13,20,15,12,9,18,2;
EFECTIVA; 1;
EGRESO; 6;
EJECUTA; 13,8;
EJECUTAR; 6;
EJEMPLO; 14,10,9;
EJEMPLOS; 16;
EL; 16,7,10,15,18,17,14,11,5,9,1,21,20,19,4,3,8,6,12;
ELECTRÓNICO; 7;
ELLA; 4;
ELLAS; 15;
EMBARGO; 1;
EMPLEADOS; 1;
EMPRESA; 1;
EMPRESAS; 1;
EN; 7,16,10,4,17,14,11,1,21,15,5,9,3,20,19,18,8,6;
ENCARGADAS; 1;
ENCARGADURÍA; 7;
ENCUENTRA; 16;
ENCUENTREN; 15,9;
ENFERMEDADES; 7;
ENTER; 3;
ENTIDAD; 10;
ENTIDADES; 10;
ENTITY; 10;
ENTORNO; 1,10;
ENTRE; 15,7,6,1;
ENTRES; 9;
ENVIADOS; 16,10;
ENVIARLOS; 13;
ENVÍA; 16,10,6;
ERRONEOS; 14;
ERROR; 14,5;
ERRORES; 14,5,1;
ERRÓNEOS; 17,11;
ES; 1,5,21,16,10,7;
ESCAPA; 1;
ESCOGER; 16;
ESCRIBE; 3;
ESPACIOS; 16,10;
ESPECIALES; 10;
ESPECIFICO; 4;
ESPECÍFICOS; 9;
ESTA; 7,16,6,22,21,15,13,10,9,5,1;
ESTADO; 7,1;
ESTAR; 16;
ESTAS; 9,1;
ESTE; 16,10,8,18,14,12,6,5,1;
ESTO; 1,18,16;
ESTOS; 5,15,13;
ESTRUCTURADA; 1;
ESTUDIOS; 7;
ESTÁ; 4,18,16,10,5;
ESTÉN; 17,14,11,1;
EVENTOS; 8;
EVOLUCIÓN; 1;
EXCESIVAS; 1;
EXIGENCIA; 1;
EXIGENCIAS; 1;
EXISTENTES; 16;
EXPERIENCIA; 7;
EXPRESIÓN; 10,12;
